{
    "switchDialog": {
        "titleDialog": "",
        "buttonDialog": "",
        "edit": false 
    },
    "sortItems": {
        "Name": "",
        "Price": "",
        "Specs": "",
        "SupplierInfo": "",
        "MadeIn": "",
        "ProductionCompanyName": "",
        "Rating": ""
    }
    
}   